<svg width="50" height="51" viewBox="0 0 50 51" fill="none" xmlns="http://www.w3.org/2000/svg">
<circle cx="25" cy="25.0623" r="25" fill="#4904FB"/>
<path d="M17.4667 28.8648C16.9908 28.8648 16.5733 28.4194 16.5733 27.9118C16.5733 27.5374 16.8094 27.1998 17.1609 27.0718C17.6195 26.9046 18.154 27.1313 18.6265 27.6939C18.944 28.0718 19.5074 28.1208 19.8853 27.8034C20.2632 27.4861 20.3122 26.9225 19.9948 26.5447C19.5118 25.9696 18.9496 25.5742 18.3601 25.3758V24.338C18.3601 23.8446 17.9601 23.4446 17.4667 23.4446C16.9733 23.4446 16.5733 23.8446 16.5733 24.338V25.3847C16.5653 25.3875 16.5573 25.3899 16.5494 25.3928C15.4949 25.7769 14.7864 26.7892 14.7864 27.9118C14.7864 28.6239 15.0602 29.3024 15.5574 29.8225C16.0685 30.3572 16.7466 30.6517 17.4667 30.6517C17.9593 30.6517 18.3601 31.0525 18.3601 31.5451C18.3601 31.905 18.146 32.2282 17.8146 32.3686C17.4145 32.538 16.9358 32.3934 16.5007 31.9719C16.1463 31.6286 15.5808 31.6375 15.2373 31.9919C14.894 32.3463 14.9029 32.9119 15.2573 33.2552C15.6607 33.646 16.1091 33.9221 16.5733 34.0779V35.1189C16.5733 35.6123 16.9733 36.0123 17.4667 36.0123C17.9601 36.0123 18.3601 35.6123 18.3601 35.1189V34.0723C19.4498 33.6849 20.147 32.6681 20.147 31.5451C20.147 30.0672 18.9446 28.8648 17.4667 28.8648Z" fill="white"/>
<path d="M35.2164 10.2125C33.5713 9.48868 31.4137 9.09009 29.141 9.09009C24.4903 9.09009 20.2066 10.7978 20.2066 13.5573C20.2066 14.2477 20.2066 19.6156 20.2066 20.2608C19.3257 20.0042 18.4055 19.8709 17.4668 19.8709C14.8477 19.8709 12.3797 20.9059 10.5176 22.7852C8.66125 24.6586 7.63892 27.1351 7.63892 29.7583C7.63892 35.1774 12.0477 39.5862 17.4668 39.5862C19.2751 39.5862 21.0137 39.1002 22.5331 38.1902C24.1948 39.0816 26.5628 39.5862 29.141 39.5862C31.4137 39.5862 33.5713 39.1876 35.2164 38.4638C37.0985 37.6358 38.135 36.4479 38.135 35.119C38.135 34.5625 38.135 14.1253 38.135 13.5573C38.135 12.2283 37.0985 11.0405 35.2164 10.2125ZM17.4668 37.7993C13.033 37.7993 9.4258 34.1921 9.4258 29.7583C9.4258 25.2917 13.033 21.6578 17.4668 21.6578C21.9334 21.6578 25.5673 25.2917 25.5673 29.7583C25.5673 34.1921 21.9334 37.7993 17.4668 37.7993ZM36.3481 35.119C36.3481 36.2118 33.5405 37.7993 29.141 37.7993C27.2695 37.7993 25.5014 37.4993 24.1598 36.9738C24.2545 36.8868 24.3481 36.7985 24.4399 36.7075C25.2445 35.9103 25.8936 35.0019 26.3738 34.0184C27.2614 34.1553 28.1887 34.2255 29.141 34.2255C31.4904 34.2255 34.4038 33.7689 36.3481 32.4971V35.119ZM36.3481 29.7583C36.3481 30.8512 33.5405 32.4387 29.141 32.4387C28.4122 32.4387 27.7017 32.3931 27.017 32.3049C27.239 31.4839 27.3542 30.6296 27.3542 29.7583C27.3542 29.4076 27.335 29.0595 27.2985 28.715C27.9003 28.7745 28.5162 28.8053 29.141 28.8053C31.4906 28.8053 34.4037 28.3486 36.3481 27.0769V29.7583ZM36.3481 24.3381C36.3481 25.431 33.5405 27.0185 29.141 27.0185C28.3806 27.0185 27.6365 26.9687 26.9209 26.8721C26.4572 25.368 25.6299 23.9836 24.4838 22.8243C25.8651 23.2276 27.4696 23.4447 29.141 23.4447C31.4906 23.4447 34.4037 22.988 36.3481 21.7162V24.3381ZM36.3481 18.9775C36.3481 20.0704 33.5405 21.6578 29.141 21.6578C27.1155 21.6578 25.2251 21.3134 23.8181 20.6881C22.6926 20.1879 21.9935 19.5324 21.9935 18.9775V16.3088C23.9278 17.5766 26.8164 18.0245 29.141 18.0245C31.4906 18.0245 34.4037 17.5678 36.3481 16.296V18.9775ZM29.141 16.2376C24.7765 16.2376 21.9935 14.6738 21.9935 13.5573C21.9935 12.4373 24.7845 10.877 29.141 10.877C33.5405 10.877 36.3481 12.4644 36.3481 13.5573C36.3481 14.6501 33.5405 16.2376 29.141 16.2376Z" fill="white"/>
</svg>
